{
	"id": "84834d3e-7f19-4d4d-b267-bc2ebdf74854",
	"name": "Test",
	"timestamp": "2021-04-23T20:47:13.516Z",
	"collection_id": "7afd3089-8dbc-435c-b839-f590dab3f5ab",
	"folder_id": 0,
	"environment_id": "0",
	"totalPass": 14,
	"totalFail": 0,
	"results": [
		{
			"id": "424302b6-f61a-44c3-b4dc-05314097f149",
			"name": "Get Planets",
			"url": "http://localhost:5000/planet/json",
			"time": 587,
			"responseCode": {
				"code": 200,
				"name": "OK"
			},
			"tests": {
				"Status code is 200": true,
				"Response time is less than 1000ms": true
			},
			"testPassFailCounts": {
				"Status code is 200": {
					"pass": 1,
					"fail": 0
				},
				"Response time is less than 1000ms": {
					"pass": 1,
					"fail": 0
				}
			},
			"times": [
				587
			],
			"allTests": [
				{
					"Status code is 200": true,
					"Response time is less than 1000ms": true
				}
			]
		},
		{
			"id": "8788383e-b30c-4485-bd13-f9013ebae591",
			"name": "Get Planet Details",
			"url": "http://localhost:5000/planet/11%20Com%20b/detail/json",
			"time": 516,
			"responseCode": {
				"code": 200,
				"name": "OK"
			},
			"tests": {
				"Status code is 200": true,
				"Response time is less than 1000ms": true
			},
			"testPassFailCounts": {
				"Status code is 200": {
					"pass": 1,
					"fail": 0
				},
				"Response time is less than 1000ms": {
					"pass": 1,
					"fail": 0
				}
			},
			"times": [
				516
			],
			"allTests": [
				{
					"Status code is 200": true,
					"Response time is less than 1000ms": true
				}
			]
		},
		{
			"id": "5acfc5b5-a50a-4062-ab29-a822581abbe5",
			"name": "Get Stars",
			"url": "http://localhost:5000/star/json",
			"time": 608,
			"responseCode": {
				"code": 200,
				"name": "OK"
			},
			"tests": {
				"Status code is 200": true,
				"Response time is less than 1000ms": true
			},
			"testPassFailCounts": {
				"Status code is 200": {
					"pass": 1,
					"fail": 0
				},
				"Response time is less than 1000ms": {
					"pass": 1,
					"fail": 0
				}
			},
			"times": [
				608
			],
			"allTests": [
				{
					"Status code is 200": true,
					"Response time is less than 1000ms": true
				}
			]
		},
		{
			"id": "0bdddb05-5998-418b-a32c-40517131d25e",
			"name": "Get Star Details",
			"url": "http://localhost:5000/star/11%20Com/detail/json",
			"time": 515,
			"responseCode": {
				"code": 200,
				"name": "OK"
			},
			"tests": {
				"Status code is 200": true,
				"Response time is less than 1000ms": true
			},
			"testPassFailCounts": {
				"Status code is 200": {
					"pass": 1,
					"fail": 0
				},
				"Response time is less than 1000ms": {
					"pass": 1,
					"fail": 0
				}
			},
			"times": [
				515
			],
			"allTests": [
				{
					"Status code is 200": true,
					"Response time is less than 1000ms": true
				}
			]
		},
		{
			"id": "eea0eabc-a75b-44c9-b2b4-cbe9b2da6bef",
			"name": "Get Orgs",
			"url": "http://localhost:5000/discovery/json",
			"time": 515,
			"responseCode": {
				"code": 200,
				"name": "OK"
			},
			"tests": {
				"Status code is 200": true,
				"Response time is less than 1000ms": true
			},
			"testPassFailCounts": {
				"Status code is 200": {
					"pass": 1,
					"fail": 0
				},
				"Response time is less than 1000ms": {
					"pass": 1,
					"fail": 0
				}
			},
			"times": [
				515
			],
			"allTests": [
				{
					"Status code is 200": true,
					"Response time is less than 1000ms": true
				}
			]
		},
		{
			"id": "a8193d30-09d5-4418-8495-ca7528dde49f",
			"name": "Get Org Details",
			"url": "http://localhost:5000/discovery/Xinglong%20Station/detail/json",
			"time": 516,
			"responseCode": {
				"code": 200,
				"name": "OK"
			},
			"tests": {
				"Status code is 200": true,
				"Response time is less than 1000ms": true
			},
			"testPassFailCounts": {
				"Status code is 200": {
					"pass": 1,
					"fail": 0
				},
				"Response time is less than 1000ms": {
					"pass": 1,
					"fail": 0
				}
			},
			"times": [
				516
			],
			"allTests": [
				{
					"Status code is 200": true,
					"Response time is less than 1000ms": true
				}
			]
		},
		{
			"id": "a4398cbc-3358-4e5e-a39e-fbb7e9f77a20",
			"name": "Get Gitstats",
			"url": "http://localhost:5000/about/json",
			"time": 518,
			"responseCode": {
				"code": 200,
				"name": "OK"
			},
			"tests": {
				"Status code is 200": true,
				"Response time is less than 1000ms": true
			},
			"testPassFailCounts": {
				"Status code is 200": {
					"pass": 1,
					"fail": 0
				},
				"Response time is less than 1000ms": {
					"pass": 1,
					"fail": 0
				}
			},
			"times": [
				518
			],
			"allTests": [
				{
					"Status code is 200": true,
					"Response time is less than 1000ms": true
				}
			]
		}
	],
	"count": 1,
	"totalTime": 3775,
	"collection": {
		"requests": [
			{
				"id": "424302b6-f61a-44c3-b4dc-05314097f149",
				"method": "GET"
			},
			{
				"id": "8788383e-b30c-4485-bd13-f9013ebae591",
				"method": "GET"
			},
			{
				"id": "5acfc5b5-a50a-4062-ab29-a822581abbe5",
				"method": "GET"
			},
			{
				"id": "0bdddb05-5998-418b-a32c-40517131d25e",
				"method": "GET"
			},
			{
				"id": "eea0eabc-a75b-44c9-b2b4-cbe9b2da6bef",
				"method": "GET"
			},
			{
				"id": "a8193d30-09d5-4418-8495-ca7528dde49f",
				"method": "GET"
			},
			{
				"id": "a4398cbc-3358-4e5e-a39e-fbb7e9f77a20",
				"method": "GET"
			}
		]
	}
}